title,first_name,last_name,city,country,department,faculty,work_field
mr,An,Example,Bielefeld,Germany,Bielefeld University,Faculty of Linguistics and Literature,Linguistics
ms,Another,Example,Osnabrück,Germany,University of Osnabrück,Cognitive Science Institute,Cognitive Science
ms,Third,Person,Berlin,Germany,Humboldt-University of Berlin,Faculty of Computer Science,Machine Learning
mr,Number,Four,Ljubljana,Slovenia,University of Ljubljana,Biotechnical Faculty,Biology
